"Id","STARTTIME","STATUS","APPLICATION","DURATION","USERID"
"07LN000000SraPRMAZ","2016-02-29T02:13:26.000+0000","Success",,,,"005N0000001Y5CjIAK"
"07LN000000SraWXMAZ","2016-02-29T02:13:28.000+0000","Success",,,,"005N0000001Y5CjIAK"
"07LN000000SraZxMAJ","2016-02-29T02:13:51.000+0000","Success",,,,"005N0000001Y5CjIAK"
"07LN000000SraaZMAR","2016-02-29T02:13:14.000+0000","Success",,,,"005N0000001Y5CjIAK"
"07LN000000SracVMAR","2016-02-29T02:13:13.000+0000","Success",,,,"005N0000001Y5CjIAK"
"07LN000000SracWMAR","2016-02-29T02:13:29.000+0000","Success",,,,"005N0000001Y5CjIAK"
"07LN000000SracjMAB","2016-02-29T02:13:13.000+0000","Success",,,,"005N0000001Y5CjIAK"
"07LN000000Srad7MAB","2016-02-29T02:13:12.000+0000","Success",,,,"005N0000001Y5CjIAK"
"07LN000000SradHMAR","2016-02-29T02:13:13.000+0000","Success",,,,"005N0000001Y5CjIAK"
"07LN000000SradRMAR","2016-02-29T02:13:21.000+0000","Success",,,,"005N0000001Y5CjIAK"
"07LN000000SradqMAB","2016-02-29T02:13:29.000+0000","Success",,,,"005N0000001Y5CjIAK"
"07LN000000Srae0MAB","2016-02-29T02:13:30.000+0000","Success",,,,"005N0000001Y5CjIAK"
"07LN000000Srae5MAB","2016-02-29T02:13:30.000+0000","Success",,,,"005N0000001Y5CjIAK"
"07LN000000SraeFMAR","2016-02-29T02:13:32.000+0000","Success",,,,"005N0000001Y5CjIAK"
"Id","STARTTIME","STATUS","APPLICATION","DURATION","LOCATION","REQUEST","USERID"
"Id","STARTTIME","STATUS","APPLICATION","DURATION","LOCATION","REQUEST","USERID"
"07LN000000SraPRMAZ","2016-02-29T02:13:26.000+0000","Success","Browser","923","Monitoring","Application","005N0000001Y5CjIAK"
"07LN000000SraWXMAZ","2016-02-29T02:13:28.000+0000","Success","Browser","631","Monitoring","Application","005N0000001Y5CjIAK"
"07LN000000SraZxMAJ","2016-02-29T02:13:51.000+0000","Success","Browser","673","Monitoring","Application","005N0000001Y5CjIAK"
"07LN000000SraaZMAR","2016-02-29T02:13:14.000+0000","Success","Browser","867","Monitoring","Application","005N0000001Y5CjIAK"
"07LN000000SracVMAR","2016-02-29T02:13:13.000+0000","Success","Browser","424","Monitoring","Application","005N0000001Y5CjIAK"
"07LN000000SracWMAR","2016-02-29T02:13:29.000+0000","Success","Browser","172","Monitoring","Application","005N0000001Y5CjIAK"
"07LN000000SracjMAB","2016-02-29T02:13:13.000+0000","Success","Browser","75","Monitoring","Application","005N0000001Y5CjIAK"
"07LN000000Srad7MAB","2016-02-29T02:13:12.000+0000","Success","Browser","956","Monitoring","Application","005N0000001Y5CjIAK"
"07LN000000SradHMAR","2016-02-29T02:13:13.000+0000","Success","Browser","137","Monitoring","Application","005N0000001Y5CjIAK"
"07LN000000SradRMAR","2016-02-29T02:13:21.000+0000","Success","Browser","136","Monitoring","Application","005N0000001Y5CjIAK"
"07LN000000SradqMAB","2016-02-29T02:13:29.000+0000","Success","Browser","816","Monitoring","Application","005N0000001Y5CjIAK"
"07LN000000Srae0MAB","2016-02-29T02:13:30.000+0000","Success","Browser","79","Monitoring","Application","005N0000001Y5CjIAK"
"07LN000000Srae5MAB","2016-02-29T02:13:30.000+0000","Success","Browser","746","Monitoring","Application","005N0000001Y5CjIAK"
"07LN000000SraeFMAR","2016-02-29T02:13:32.000+0000","Success","Browser","166","Monitoring","Application","005N0000001Y5CjIAK"
